…
### Getting the keypresses in human-readable formats

In order analyze the key presses, we have to get them to a point where we can work with them. For this, I've written the function `getPresses()`. There are a lot of optional arguments, but they're detailed in the code. The basic functionality is like this:


{% highlight r %}
getPresses(key_db) %>%
  select(cleanStrings) # selecting only the "cleaned up" version of the key presses
{% endhighlight %}



{% highlight text %}
## # A tibble: 108,520 × 1
##    cleanStrings
##           <chr>
## 1  <[Cmd: Tab]>
## 2             a
## 3             a
## 4             a
## 5             a
## 6             s
## 7             s
## 8             s
## 9             s
## 10            a
## # ... with 108,510 more rows
…
{% highlight r %}
key_db %>% 
  getPresses() %>%
  getStats(s_col="cleanStrings", # The name of the column of the key press strings being passed in
           break_multitaps=TRUE # This will ungroup repeated taps (see below)
           ) %>%
  arrange(-n) # order the keys with the highest frequencies on top
{% endhighlight %}



{% highlight text %}
## Source: local data frame [201 x 3]
## Groups: cleanStrings [201]
## 
##     cleanStrings areModsPressed     n
##            <chr>          <dbl> <dbl>
## 1       <[Down]>              1 27465
## 2  <[Backspace]>              1 13729
## 3                             0 13228
## 4              e              0  7849
## 5              t              0  6169
## 6              a              0  5197
## 7              o              0  4771
## 8              i              0  4513
## 9              s              0  4462
## 10             n              0  4287
## # ... with 191 more rows
…
I've made `getPresses()` capable of separating key presses by application name, so that they can be analyzed independently in parallel. Here we use our old friend `process_db` from earlier. Because the `key_db` only has numbers for each process, if we want to see the names those numbers refer to, we have to pass in what is essentially a number-to-name dictionary (`process_db`, after we call `collect()` on it).


{% highlight r %}
key_db %>% 
  getPresses(process_id_df    = process_db %>% # so we can use application names rather than numbers for process IDs
               select(-created_at) %>% # I remove a column that we don't need
               collect(), # this function makes dplyr stop being lazy and fetch us the actual data
             group_by_process = TRUE)
{% endhighlight %}



{% highlight text %}
## # A tibble: 22 × 2
##             process_id                  data
##                  <chr>                <list>
## 1             Terminal  <tibble [4,561 × 8]>
## 2              RStudio <tibble [33,478 × 8]>
## 3        Google Chrome <tibble [39,359 × 8]>
## 4         TextWrangler  <tibble [3,097 × 8]>
## 5               Finder    <tibble [580 × 8]>
## 6             TextEdit  <tibble [5,213 × 8]>
## 7                Notes  <tibble [1,851 × 8]>
## 8          QMK Flasher      <tibble [3 × 8]>
## 9  CoreServicesUIAgent      <tibble [1 × 8]>
## 10     Microsoft Excel    <tibble [151 × 8]>
## # ... with 12 more rows
…
{% highlight text %}
## # A tibble: 2,224 × 4
##        process_id cleanStrings     n areModsPressed
##             <chr>        <chr> <int>          <dbl>
## 1   Google Chrome               4950              0
## 2         RStudio               3992              0
## 3   Google Chrome            e  3014              0
## 4         RStudio            e  2395              0
## 5   Google Chrome            t  2358              0
## 6  Microsoft Word               2151              0
## 7   Google Chrome            o  2023              0
## 8   Google Chrome            a  1948              0
## 9         RStudio            t  1907              0
## 10  Google Chrome            i  1793              0
## # ... with 2,214 more rows
…
